{
  "albums": {
    "href": "https://api.spotify.com/v1/search?query=run&type=album&offset=0&limit=6",
    "items": [{
        "album_type": "album",
        "artists": [{
          "external_urls": {
            "spotify": "https://open.spotify.com/artist/4RnBFZRiMLRyZy0AzzTg2C"
          },
          "href": "https://api.spotify.com/v1/artists/4RnBFZRiMLRyZy0AzzTg2C",
          "id": "4RnBFZRiMLRyZy0AzzTg2C",
          "name": "Run The Jewels",
          "type": "artist",
          "uri": "spotify:artist:4RnBFZRiMLRyZy0AzzTg2C"
        }],
        "available_markets": [
          "CA",
          "US"
        ],
        "external_urls": {
          "spotify": "https://open.spotify.com/album/3v2GjFB9V5kHgrOCXn3sI9"
        },
        "href": "https://api.spotify.com/v1/albums/3v2GjFB9V5kHgrOCXn3sI9",
        "id": "3v2GjFB9V5kHgrOCXn3sI9",
        "images": [{
            "height": 640,
            "url": "https://i.scdn.co/image/b345572d2bd9e2ee08e5b56f3a66a5ea01f94a68",
            "width": 640
          },
          {
            "height": 300,
            "url": "https://i.scdn.co/image/61e514dc5dd8bcd20855e508069b84298b7beac7",
            "width": 300
          },
          {
            "height": 64,
            "url": "https://i.scdn.co/image/b5e910bbb7160ee4ded1e2acf7a78383c94662dd",
            "width": 64
          }
        ],
        "name": "Run the Jewels 3",
        "type": "album",
        "uri": "spotify:album:3v2GjFB9V5kHgrOCXn3sI9"
      },
      {
        "album_type": "single",
        "artists": [{
            "external_urls": {
              "spotify": "https://open.spotify.com/artist/738wLrAtLtCtFOLvQBXOXp"
            },
            "href": "https://api.spotify.com/v1/artists/738wLrAtLtCtFOLvQBXOXp",
            "id": "738wLrAtLtCtFOLvQBXOXp",
            "name": "Major Lazer",
            "type": "artist",
            "uri": "spotify:artist:738wLrAtLtCtFOLvQBXOXp"
          },
          {
            "external_urls": {
              "spotify": "https://open.spotify.com/artist/2HPaUgqeutzr3jx5a9WyDV"
            },
            "href": "https://api.spotify.com/v1/artists/2HPaUgqeutzr3jx5a9WyDV",
            "id": "2HPaUgqeutzr3jx5a9WyDV",
            "name": "PARTYNEXTDOOR",
            "type": "artist",
            "uri": "spotify:artist:2HPaUgqeutzr3jx5a9WyDV"
          },
          {
            "external_urls": {
              "spotify": "https://open.spotify.com/artist/0hCNtLu0JehylgoiP8L4Gh"
            },
            "href": "https://api.spotify.com/v1/artists/0hCNtLu0JehylgoiP8L4Gh",
            "id": "0hCNtLu0JehylgoiP8L4Gh",
            "name": "Nicki Minaj",
            "type": "artist",
            "uri": "spotify:artist:0hCNtLu0JehylgoiP8L4Gh"
          }
        ],
        "available_markets": [
          "CA",
          "MX",
          "US"
        ],
        "external_urls": {
          "spotify": "https://open.spotify.com/album/5tk1rHDB0ZcqTAU7XDqKwA"
        },
        "href": "https://api.spotify.com/v1/albums/5tk1rHDB0ZcqTAU7XDqKwA",
        "id": "5tk1rHDB0ZcqTAU7XDqKwA",
        "images": [{
            "height": 640,
            "url": "https://i.scdn.co/image/fdf1443bb7b2d6a3a6bb458bd5a1a2079a50e39c",
            "width": 640
          },
          {
            "height": 300,
            "url": "https://i.scdn.co/image/0d8ec9610f98a79d4a64e6389bf2ee14a50b1482",
            "width": 300
          },
          {
            "height": 64,
            "url": "https://i.scdn.co/image/1a141c83f240c4d2ef19d2e39500a4c76219e415",
            "width": 64
          }
        ],
        "name": "Run Up",
        "type": "album",
        "uri": "spotify:album:5tk1rHDB0ZcqTAU7XDqKwA"
      },
      {
        "album_type": "album",
        "artists": [{
          "external_urls": {
            "spotify": "https://open.spotify.com/artist/4RnBFZRiMLRyZy0AzzTg2C"
          },
          "href": "https://api.spotify.com/v1/artists/4RnBFZRiMLRyZy0AzzTg2C",
          "id": "4RnBFZRiMLRyZy0AzzTg2C",
          "name": "Run The Jewels",
          "type": "artist",
          "uri": "spotify:artist:4RnBFZRiMLRyZy0AzzTg2C"
        }],
        "available_markets": [
          "AD",
          "AR",
          "AT",
          "BE",
          "BG",
          "BO",
          "BR",
          "CA",
          "CH",
          "CL",
          "CO",
          "CR",
          "CY",
          "CZ",
          "DE",
          "DK",
          "DO",
          "EC",
          "EE",
          "ES",
          "FI",
          "FR",
          "GB",
          "GR",
          "GT",
          "HK",
          "HN",
          "HU",
          "ID",
          "IE",
          "IS",
          "IT",
          "LI",
          "LT",
          "LU",
          "LV",
          "MC",
          "MT",
          "MX",
          "MY",
          "NI",
          "NL",
          "NO",
          "PA",
          "PE",
          "PH",
          "PL",
          "PT",
          "PY",
          "SE",
          "SG",
          "SK",
          "SV",
          "TR",
          "TW",
          "US",
          "UY"
        ],
        "external_urls": {
          "spotify": "https://open.spotify.com/album/2lPYlP4eumsjz6LBG8GCbG"
        },
        "href": "https://api.spotify.com/v1/albums/2lPYlP4eumsjz6LBG8GCbG",
        "id": "2lPYlP4eumsjz6LBG8GCbG",
        "images": [{
            "height": 640,
            "url": "https://i.scdn.co/image/7faa16835aee312077945f30dc5cd48215c7044a",
            "width": 640
          },
          {
            "height": 300,
            "url": "https://i.scdn.co/image/e05df184e1b6c5bcc8a398527b6c578ed7d9a710",
            "width": 300
          },
          {
            "height": 64,
            "url": "https://i.scdn.co/image/70e0cb83e96934920f17564871a01f7d55359a8f",
            "width": 64
          }
        ],
        "name": "Run the Jewels 2",
        "type": "album",
        "uri": "spotify:album:2lPYlP4eumsjz6LBG8GCbG"
      },
      {
        "album_type": "album",
        "artists": [{
          "external_urls": {
            "spotify": "https://open.spotify.com/artist/4njdEjTnLfcGImKZu1iSrz"
          },
          "href": "https://api.spotify.com/v1/artists/4njdEjTnLfcGImKZu1iSrz",
          "id": "4njdEjTnLfcGImKZu1iSrz",
          "name": "AWOLNATION",
          "type": "artist",
          "uri": "spotify:artist:4njdEjTnLfcGImKZu1iSrz"
        }],
        "available_markets": [
          "AD",
          "AR",
          "AT",
          "AU",
          "BE",
          "BG",
          "BO",
          "BR",
          "CA",
          "CH",
          "CL",
          "CO",
          "CR",
          "CY",
          "CZ",
          "DE",
          "DK",
          "DO",
          "EC",
          "EE",
          "ES",
          "FI",
          "FR",
          "GB",
          "GR",
          "GT",
          "HK",
          "HN",
          "HU",
          "ID",
          "IE",
          "IS",
          "IT",
          "JP",
          "LI",
          "LT",
          "LU",
          "LV",
          "MC",
          "MT",
          "MX",
          "MY",
          "NI",
          "NL",
          "NO",
          "NZ",
          "PA",
          "PE",
          "PH",
          "PL",
          "PT",
          "PY",
          "SE",
          "SG",
          "SK",
          "SV",
          "TR",
          "TW",
          "US",
          "UY"
        ],
        "external_urls": {
          "spotify": "https://open.spotify.com/album/6yGp5e6Puhx155c8dQ8e6P"
        },
        "href": "https://api.spotify.com/v1/albums/6yGp5e6Puhx155c8dQ8e6P",
        "id": "6yGp5e6Puhx155c8dQ8e6P",
        "images": [{
            "height": 640,
            "url": "https://i.scdn.co/image/645b77989a1df5cc65f342750b68d15bd30a13ea",
            "width": 640
          },
          {
            "height": 300,
            "url": "https://i.scdn.co/image/03a0f3715641785ec6d4e0ec349bbc5321fb05dc",
            "width": 300
          },
          {
            "height": 64,
            "url": "https://i.scdn.co/image/d59595e7314a9afe1e60fd11b4f39295ebfe9a99",
            "width": 64
          }
        ],
        "name": "Run",
        "type": "album",
        "uri": "spotify:album:6yGp5e6Puhx155c8dQ8e6P"
      },
      {
        "album_type": "single",
        "artists": [{
          "external_urls": {
            "spotify": "https://open.spotify.com/artist/7jy3rLJdDQY21OgRLCZ9sD"
          },
          "href": "https://api.spotify.com/v1/artists/7jy3rLJdDQY21OgRLCZ9sD",
          "id": "7jy3rLJdDQY21OgRLCZ9sD",
          "name": "Foo Fighters",
          "type": "artist",
          "uri": "spotify:artist:7jy3rLJdDQY21OgRLCZ9sD"
        }],
        "available_markets": [
          "AD",
          "AR",
          "AT",
          "AU",
          "BE",
          "BG",
          "BO",
          "BR",
          "CA",
          "CH",
          "CL",
          "CO",
          "CR",
          "CY",
          "CZ",
          "DE",
          "DK",
          "DO",
          "EC",
          "EE",
          "ES",
          "FI",
          "FR",
          "GB",
          "GR",
          "GT",
          "HK",
          "HN",
          "HU",
          "ID",
          "IE",
          "IS",
          "IT",
          "JP",
          "LI",
          "LT",
          "LU",
          "LV",
          "MC",
          "MT",
          "MX",
          "MY",
          "NI",
          "NL",
          "NO",
          "NZ",
          "PA",
          "PE",
          "PH",
          "PL",
          "PT",
          "PY",
          "SE",
          "SG",
          "SK",
          "SV",
          "TR",
          "TW",
          "US",
          "UY"
        ],
        "external_urls": {
          "spotify": "https://open.spotify.com/album/1CGsXbXvhfNhgFJgt4JmQm"
        },
        "href": "https://api.spotify.com/v1/albums/1CGsXbXvhfNhgFJgt4JmQm",
        "id": "1CGsXbXvhfNhgFJgt4JmQm",
        "images": [{
            "height": 640,
            "url": "https://i.scdn.co/image/39acc856423f3ca674da09f7d67cfc16470fba21",
            "width": 640
          },
          {
            "height": 300,
            "url": "https://i.scdn.co/image/06fa4f920190aa6e80369a2b1bb482b15ef4c517",
            "width": 300
          },
          {
            "height": 64,
            "url": "https://i.scdn.co/image/e89af212a531eac7c3a1d245ff95049dffe488c9",
            "width": 64
          }
        ],
        "name": "Run",
        "type": "album",
        "uri": "spotify:album:1CGsXbXvhfNhgFJgt4JmQm"
      },
      {
        "album_type": "album",
        "artists": [{
          "external_urls": {
            "spotify": "https://open.spotify.com/artist/11gWrKZMBsGQWmobv3oNfW"
          },
          "href": "https://api.spotify.com/v1/artists/11gWrKZMBsGQWmobv3oNfW",
          "id": "11gWrKZMBsGQWmobv3oNfW",
          "name": "Alison Wonderland",
          "type": "artist",
          "uri": "spotify:artist:11gWrKZMBsGQWmobv3oNfW"
        }],
        "available_markets": [
          "CA",
          "MX",
          "US"
        ],
        "external_urls": {
          "spotify": "https://open.spotify.com/album/4YEuQkWaBp1L4LQ5qrI2ys"
        },
        "href": "https://api.spotify.com/v1/albums/4YEuQkWaBp1L4LQ5qrI2ys",
        "id": "4YEuQkWaBp1L4LQ5qrI2ys",
        "images": [{
            "height": 640,
            "url": "https://i.scdn.co/image/1d51bd732271bf370e4b1193c656b0fe0ce011a8",
            "width": 640
          },
          {
            "height": 300,
            "url": "https://i.scdn.co/image/756ed3a965a9d19f3800c726f2bf0cf9153ee4d3",
            "width": 300
          },
          {
            "height": 64,
            "url": "https://i.scdn.co/image/5f305e894fc13e99584aac6bb791b7613436174b",
            "width": 64
          }
        ],
        "name": "Run",
        "type": "album",
        "uri": "spotify:album:4YEuQkWaBp1L4LQ5qrI2ys"
      }
    ],
    "limit": 6,
    "next": "https://api.spotify.com/v1/search?query=run&type=album&offset=6&limit=6",
    "offset": 0,
    "previous": null,
    "total": 7493
  },
  "artists": {
    "href": "https://api.spotify.com/v1/search?query=run&type=artist&offset=0&limit=6",
    "items": [{
        "external_urls": {
          "spotify": "https://open.spotify.com/artist/4RnBFZRiMLRyZy0AzzTg2C"
        },
        "followers": {
          "href": null,
          "total": 282006
        },
        "genres": [
          "alternative hip hop",
          "escape room",
          "hip hop",
          "pop rap",
          "rap",
          "underground hip hop"
        ],
        "href": "https://api.spotify.com/v1/artists/4RnBFZRiMLRyZy0AzzTg2C",
        "id": "4RnBFZRiMLRyZy0AzzTg2C",
        "images": [{
            "height": 640,
            "url": "https://i.scdn.co/image/7195c290c3d01d6aa5ed38e586b7507844febba3",
            "width": 640
          },
          {
            "height": 320,
            "url": "https://i.scdn.co/image/7566df19db79c5ef1d83d7d4595871f96a41e428",
            "width": 320
          },
          {
            "height": 160,
            "url": "https://i.scdn.co/image/b189456130865fa15c236cba8ed12d06a4ce93cb",
            "width": 160
          }
        ],
        "name": "Run The Jewels",
        "popularity": 71,
        "type": "artist",
        "uri": "spotify:artist:4RnBFZRiMLRyZy0AzzTg2C"
      },
      {
        "external_urls": {
          "spotify": "https://open.spotify.com/artist/0MmnmsAuQKRFpo6vJElcaU"
        },
        "followers": {
          "href": null,
          "total": 108324
        },
        "genres": [
          "indie anthem-folk",
          "indie folk",
          "indie poptimism",
          "pop"
        ],
        "href": "https://api.spotify.com/v1/artists/0MmnmsAuQKRFpo6vJElcaU",
        "id": "0MmnmsAuQKRFpo6vJElcaU",
        "images": [{
            "height": 640,
            "url": "https://i.scdn.co/image/4fb078da2db9b80a9ed4a917efd25ec14bcd5f1c",
            "width": 640
          },
          {
            "height": 320,
            "url": "https://i.scdn.co/image/051ef92b71394034791f771adc8e29c5979ccf01",
            "width": 320
          },
          {
            "height": 160,
            "url": "https://i.scdn.co/image/0abf397526265102af55f27f4f2d90858657d6b8",
            "width": 160
          }
        ],
        "name": "Amber Run",
        "popularity": 64,
        "type": "artist",
        "uri": "spotify:artist:0MmnmsAuQKRFpo6vJElcaU"
      },
      {
        "external_urls": {
          "spotify": "https://open.spotify.com/artist/3CQIn7N5CuRDP8wEI7FiDA"
        },
        "followers": {
          "href": null,
          "total": 251268
        },
        "genres": [
          "east coast hip hop",
          "hardcore hip hop",
          "hip hop",
          "old school hip hop",
          "rap"
        ],
        "href": "https://api.spotify.com/v1/artists/3CQIn7N5CuRDP8wEI7FiDA",
        "id": "3CQIn7N5CuRDP8wEI7FiDA",
        "images": [{
            "height": 677,
            "url": "https://i.scdn.co/image/1bf54468fa9c772af8f514a20a99631fd35b2dbc",
            "width": 999
          },
          {
            "height": 434,
            "url": "https://i.scdn.co/image/bbdeb7e5e0b12a8896daeeddfbf685a5ebd66271",
            "width": 640
          },
          {
            "height": 135,
            "url": "https://i.scdn.co/image/47761134242154d90ca8814735a68c29887777d8",
            "width": 199
          },
          {
            "height": 43,
            "url": "https://i.scdn.co/image/54488806e846af73f66a644a8f939fd138f34001",
            "width": 63
          }
        ],
        "name": "Run–D.M.C.",
        "popularity": 64,
        "type": "artist",
        "uri": "spotify:artist:3CQIn7N5CuRDP8wEI7FiDA"
      },
      {
        "external_urls": {
          "spotify": "https://open.spotify.com/artist/3ceQN2NVlLg1hgTzljDE4n"
        },
        "followers": {
          "href": null,
          "total": 134925
        },
        "genres": [
          "canadian indie",
          "indie folk"
        ],
        "href": "https://api.spotify.com/v1/artists/3ceQN2NVlLg1hgTzljDE4n",
        "id": "3ceQN2NVlLg1hgTzljDE4n",
        "images": [{
            "height": 640,
            "url": "https://i.scdn.co/image/4b69a0f7f3e79fbc2bbdace4f45c64900bb3614c",
            "width": 640
          },
          {
            "height": 320,
            "url": "https://i.scdn.co/image/b797c6a163dab4c52c481cbee0b207d10a14b17a",
            "width": 320
          },
          {
            "height": 160,
            "url": "https://i.scdn.co/image/c10e234bc9130f77798cf7a3d1bc94ee849b70a5",
            "width": 160
          }
        ],
        "name": "Half Moon Run",
        "popularity": 61,
        "type": "artist",
        "uri": "spotify:artist:3ceQN2NVlLg1hgTzljDE4n"
      },
      {
        "external_urls": {
          "spotify": "https://open.spotify.com/artist/0INDB6Snts5NDbzh8jC3lk"
        },
        "followers": {
          "href": null,
          "total": 27596
        },
        "genres": [
          "chamber pop",
          "folk-pop",
          "indie anthem-folk",
          "indie folk",
          "indie pop",
          "indie rockism",
          "indiecoustica",
          "new americana",
          "stomp and holler"
        ],
        "href": "https://api.spotify.com/v1/artists/0INDB6Snts5NDbzh8jC3lk",
        "id": "0INDB6Snts5NDbzh8jC3lk",
        "images": [{
            "height": 640,
            "url": "https://i.scdn.co/image/50e709d9939d5a8440fde07cd633e5501737090f",
            "width": 640
          },
          {
            "height": 320,
            "url": "https://i.scdn.co/image/d9aa3b2e9fcde5bdfe877d7868a6c8d85e10dee1",
            "width": 320
          },
          {
            "height": 160,
            "url": "https://i.scdn.co/image/5f06c2bcb04ed737301242e5e6882004326a97ff",
            "width": 160
          }
        ],
        "name": "Run River North",
        "popularity": 56,
        "type": "artist",
        "uri": "spotify:artist:0INDB6Snts5NDbzh8jC3lk"
      },
      {
        "external_urls": {
          "spotify": "https://open.spotify.com/artist/1AaHZZ72KXKYDvXccf9Q0R"
        },
        "followers": {
          "href": null,
          "total": 0
        },
        "genres": [],
        "href": "https://api.spotify.com/v1/artists/1AaHZZ72KXKYDvXccf9Q0R",
        "id": "1AaHZZ72KXKYDvXccf9Q0R",
        "images": [],
        "name": "Run",
        "popularity": 40,
        "type": "artist",
        "uri": "spotify:artist:1AaHZZ72KXKYDvXccf9Q0R"
      }
    ],
    "limit": 6,
    "next": "https://api.spotify.com/v1/search?query=run&type=artist&offset=6&limit=6",
    "offset": 0,
    "previous": null,
    "total": 435
  }
}
